<?xml version="1.0" encoding="utf-8"?>
<!-- Generator: Adobe Illustrator 17.0.0, SVG Export Plug-In . SVG Version: 6.00 Build 0)  -->
<!DOCTYPE svg PUBLIC "-//W3C//DTD SVG 1.1//EN" "http://www.w3.org/Graphics/SVG/1.1/DTD/svg11.dtd">
<svg version="1.1" id="Capa_1" xmlns="http://www.w3.org/2000/svg" xmlns:xlink="http://www.w3.org/1999/xlink" x="0px" y="0px"
	 width="60px" height="24px" viewBox="0 0 60 24" enable-background="new 0 0 60 24" xml:space="preserve">
<g id="BANCOMER">
	<g>
		<g>
			<path fill="#003383" d="M28.1341,13.2623V8.1111h1.4938c0.2535,0,0.4955,0.0216,0.7123,0.0819
				c0.2148,0.0547,0.409,0.1479,0.5663,0.2834c0.1056,0.0875,0.1929,0.1986,0.2569,0.332c0.0855,0.1721,0.1316,0.3848,0.1316,0.629
				c0,0.2656-0.0591,0.479-0.1631,0.6523c-0.1016,0.1704-0.2512,0.2943-0.4182,0.3887c-0.035,0.0205-0.0716,0.0388-0.1098,0.0558
				c0.0843,0.0273,0.167,0.0583,0.2462,0.098c0.1557,0.0717,0.2973,0.1743,0.4073,0.3059c0.0748,0.0876,0.1362,0.1879,0.1849,0.31
				c0.0612,0.1573,0.0955,0.3407,0.0955,0.5594c0,0.2823-0.0597,0.5218-0.172,0.7245c-0.1098,0.2-0.2689,0.3585-0.4701,0.4731
				c-0.1295,0.0768-0.2786,0.135-0.4436,0.1752c-0.2134,0.0555-0.4528,0.0821-0.7087,0.0821L28.1341,13.2623 M29.7329,12.7683
				c0.2094,0,0.3971-0.023,0.5624-0.0738c0.1639-0.0484,0.3025-0.1222,0.4098-0.2226c0.0684-0.0661,0.1275-0.1445,0.1692-0.2353
				c0.0585-0.1209,0.0905-0.2686,0.0905-0.4445c0-0.2044-0.0388-0.365-0.1102-0.4947c-0.0728-0.1302-0.176-0.232-0.317-0.3075
				c-0.0921-0.0489-0.1987-0.0908-0.3219-0.1184c-0.1647-0.0406-0.354-0.0585-0.5663-0.0585h-0.9605v1.9553
				C28.6889,12.7683,29.7329,12.7683,29.7329,12.7683z M29.6063,10.3198c0.1849,0,0.3518-0.0186,0.5013-0.0576
				c0.1523-0.041,0.2794-0.1046,0.3762-0.1896c0.065-0.0564,0.1217-0.1235,0.1617-0.2086c0.0549-0.1091,0.0859-0.2429,0.0859-0.4144
				c0-0.1902-0.0392-0.337-0.1052-0.452c-0.0694-0.1119-0.1639-0.1938-0.285-0.2555c-0.0809-0.044-0.1744-0.0757-0.2758-0.0976
				c-0.134-0.0278-0.2838-0.0419-0.444-0.0419h-0.9326v1.7172C28.6889,10.3198,29.6063,10.3198,29.6063,10.3198z"/>
			<path fill="#003383" d="M34.9447,9.9579c-0.0481-0.1109-0.1141-0.2053-0.1975-0.2842c-0.1191-0.1162-0.2728-0.201-0.4528-0.2519
				c-0.175-0.0501-0.3756-0.0719-0.5924-0.0719c-0.7374,0.0043-1.1532,0.2183-1.4234,0.3716
				c0.1995,0.422,0.4108,0.3193,0.6839,0.2015c0.2096-0.0898,0.4508-0.1274,0.7055-0.1274
				c0.1175,0.0002,0.2458,0.0273,0.3707,0.0532c0.0734,0.0195,0.1396,0.0471,0.1947,0.0791
				c0.0889,0.0557,0.1523,0.1241,0.2014,0.2137c0.0461,0.0892,0.0722,0.2081,0.0722,0.3602v0.5507
				c-0.2788-0.0618-0.56-0.0894-0.8809-0.0894c-0.2229,0-0.4295,0.0216-0.6206,0.0669c-0.1386,0.0343-0.2649,0.0814-0.3854,0.1429
				c-0.1728,0.0948-0.3138,0.2228-0.4148,0.3831c-0.0996,0.1638-0.1501,0.3571-0.1501,0.5818c0,0.1826,0.0332,0.3539,0.0931,0.4975
				c0.0962,0.2162,0.2603,0.3876,0.4645,0.4968c0.2066,0.1124,0.4492,0.1686,0.723,0.1686c0,0,0,0,0.001,0
				c0.3154,0,0.5659-0.0595,0.7799-0.1591c0.1464-0.0715,0.2732-0.1585,0.3902-0.2629c0.0032,0.0509,0.006,0.0924,0.0123,0.1309
				c0.006,0.0417,0.0163,0.0796,0.0354,0.1138c0.0129,0.0253,0.0286,0.0511,0.0509,0.0702c0.0348,0.0272,0.0728,0.0461,0.113,0.0553
				c0.0396,0.0113,0.0861,0.0137,0.135,0.0137H35.04v-2.7835C35.04,10.2783,35.0074,10.107,34.9447,9.9579 M34.5069,12.2997
				c-0.136,0.1568-0.2788,0.2905-0.4468,0.3821c-0.177,0.0984-0.3896,0.1573-0.6759,0.1573c-0.1157,0-0.2233-0.0136-0.3233-0.0413
				c-0.071-0.0201-0.1338-0.0501-0.1913-0.0872c-0.0829-0.0537-0.1495-0.1272-0.1987-0.2241
				c-0.0485-0.1-0.0764-0.2229-0.0764-0.3771c0-0.132,0.0257-0.2353,0.0764-0.3207c0.0384-0.0659,0.0853-0.1209,0.1466-0.1738
				c0.0883-0.0732,0.206-0.125,0.3504-0.1632c0.1384-0.0367,0.2993-0.054,0.4806-0.054c0.317,0,0.5976,0.0415,0.8583,0.0985V12.2997
				z"/>
			<path fill="#003383" d="M38.5005,13.2623v-2.7977c0-0.158-0.0213-0.2736-0.063-0.3602c-0.039-0.086-0.0909-0.1433-0.1571-0.1881
				c-0.0455-0.0265-0.0982-0.0493-0.1551-0.0646c-0.0817-0.0186-0.173-0.026-0.272-0.026c-0.2563,0-0.5091,0.07-0.7527,0.1827
				c-0.2269,0.1073-0.4476,0.2475-0.6431,0.3969v2.8569h-0.5343V9.3908h0.2547c0.0261,0.0023,0.0519,0.0023,0.0772,0.0053
				c0.0255,0.0033,0.0515,0.0117,0.0791,0.0271c0.0175,0.0101,0.0338,0.0217,0.0455,0.0366
				c0.0191,0.0202,0.0346,0.0453,0.0434,0.0695c0.0111,0.0357,0.0217,0.0736,0.0264,0.1142c0.0066,0.0562,0.008,0.121,0.008,0.2048
				v0.0416c0.177-0.1315,0.3744-0.2482,0.5974-0.3447c0.281-0.1192,0.5932-0.1953,0.937-0.1953
				c0.1525,0,0.2999,0.0169,0.4375,0.0602c0.1358,0.0443,0.2621,0.1168,0.3621,0.2318c0.0672,0.0739,0.1191,0.165,0.1639,0.2675
				c0.0539,0.1442,0.0837,0.3138,0.0837,0.5169v2.8359L38.5005,13.2623"/>
			<path fill="#003383" d="M43.871,12.9917c-0.2856-0.1998-0.5047-0.4906-0.6302-0.853c-0.0853-0.2439-0.1297-0.5152-0.1297-0.8163
				c0-0.4456,0.1008-0.8371,0.2856-1.1523c0.1845-0.3142,0.4546-0.549,0.7857-0.6879c0.2225-0.0873,0.4665-0.1323,0.7352-0.1323
				c0.4019-0.0015,0.7594,0.1038,1.0464,0.3068c0.2887,0.1966,0.5047,0.4879,0.634,0.8521
				c0.0825,0.2399,0.1259,0.5154,0.1259,0.8136c0,0.4492-0.0974,0.8417-0.2862,1.1541c-0.1818,0.3119-0.4532,0.5453-0.7829,0.6802
				c-0.2237,0.0885-0.4709,0.1368-0.7372,0.1368C44.5172,13.2935,44.1611,13.1871,43.871,12.9917 M44.1704,10.0326
				c-0.1955,0.146-0.345,0.3607-0.4333,0.6403c-0.0601,0.189-0.0897,0.4055-0.0897,0.6494c0,0.3719,0.0698,0.6749,0.1957,0.9102
				c0.13,0.2355,0.3098,0.4036,0.5409,0.4998c0.1547,0.0659,0.3323,0.1018,0.5337,0.1018c0.2983,0,0.5469-0.0781,0.7455-0.2222
				c0.1949-0.1439,0.3418-0.3541,0.4321-0.6366c0.0573-0.1868,0.0889-0.4065,0.0889-0.6531c0-0.3638-0.0702-0.6695-0.1996-0.9041
				c-0.1255-0.2394-0.3054-0.4098-0.5381-0.5113c-0.1527-0.0658-0.3313-0.0999-0.5288-0.0999
				C44.6165,9.807,44.3673,9.8836,44.1704,10.0326z"/>
			<path fill="#003383" d="M52.1155,13.2623v-2.8219c0-0.1483-0.0197-0.2574-0.0523-0.3424
				c-0.0344-0.0824-0.078-0.1379-0.1382-0.1813c-0.042-0.0259-0.0887-0.0484-0.1446-0.0634
				c-0.0726-0.0188-0.1613-0.0275-0.2629-0.0275c-0.2448,0-0.4679,0.0666-0.6793,0.1725c-0.1967,0.0997-0.384,0.2322-0.5622,0.3739
				v2.8901h-0.5355v-2.8219c0-0.1467-0.0205-0.2568-0.0561-0.3424c-0.0344-0.0813-0.0815-0.1369-0.1414-0.1813
				c-0.0406-0.0259-0.0865-0.0484-0.1414-0.0634c-0.0734-0.0188-0.1567-0.0275-0.2494-0.0275c-0.2555,0-0.4804,0.0659-0.6934,0.1709
				c-0.1989,0.1003-0.384,0.2338-0.5651,0.3797v2.8859h-0.5333V9.3908h0.2523c0.0266,0.0023,0.0519,0.0023,0.0795,0.0053
				c0.0286,0.0033,0.0533,0.0117,0.0815,0.0271c0.0173,0.0076,0.0334,0.0217,0.0457,0.0366
				c0.0213,0.0202,0.034,0.0453,0.0443,0.0695c0.0107,0.0357,0.0187,0.0736,0.0219,0.1144c0.0072,0.056,0.0082,0.1213,0.0082,0.2046
				v0.0075c0.1491-0.1072,0.3214-0.2141,0.5115-0.3053c0.2563-0.1197,0.5504-0.2007,0.8726-0.2007
				c0.1593,0,0.316,0.0226,0.4582,0.081c0.1448,0.0584,0.2724,0.1549,0.3685,0.2828c0.0382,0.0541,0.0708,0.1149,0.0978,0.1816
				c0.171-0.1344,0.3637-0.2555,0.5799-0.3549c0.2593-0.1155,0.551-0.1905,0.8628-0.1905c0.1507,0,0.2953,0.0196,0.4275,0.0649
				c0.1293,0.0461,0.2492,0.1226,0.3444,0.2287c0.0634,0.0684,0.1153,0.1523,0.1541,0.2482
				c0.0489,0.1303,0.0754,0.2776,0.0754,0.4493v2.9213L52.1155,13.2623"/>
			<path fill="#003383" d="M23.0345,11.3956l0.7041-2.3501l0.7133,2.3501H23.0345 M24.8536,8.6361
				c-0.1418-0.4233-0.2219-0.5228-0.6254-0.5228h-0.9843l-1.5759,5.149h0.8026l0.3383-1.1083h1.872l0.3406,1.1083h1.3956
				L24.8536,8.6361z"/>
			<path fill="#003383" d="M15.3837,12.5762v-3.793h0.6624c0.3184,0,0.5932,0.2627,0.5932,0.5809
				c0,0.1114-0.0205,0.2157-0.1299,0.3723l-0.4289,0.6435c0.4488,0.1078,0.7487,0.4498,0.7487,1.0885
				c0,0.7771-0.4647,1.1078-1.0788,1.1078H15.3837 M17.0503,10.1312l0.2525-0.3727c0.5311-0.7896,0.1651-1.6461-0.8865-1.6461
				h-2.2445v5.1515h2.1653C18.2407,13.2639,18.8106,11.0471,17.0503,10.1312"/>
			<path fill="#003383" d="M11.3909,12.5762h-0.3633v-3.793h0.6584c0.3194,0,0.5966,0.2627,0.5966,0.5809
				c0,0.1114-0.0207,0.2157-0.1318,0.3723l-0.4313,0.6435c0.4506,0.1078,0.7499,0.4498,0.7499,1.0885
				C12.4695,12.2455,12.0054,12.5762,11.3909,12.5762 M12.6902,10.1312l0.2512-0.3727c0.5333-0.7896,0.1682-1.6461-0.8861-1.6461
				H9.8136v5.1515h2.1649C13.8802,13.2639,14.4555,11.0471,12.6902,10.1312"/>
			<path fill="#003383" d="M19.3155,8.7831c-0.1835-0.5802-0.2764-0.6708-0.628-0.6708h-0.9096l1.6853,5.1499h1.2381l1.5688-5.1499
				h-0.8145l-1.1627,3.9115L19.3155,8.7831"/>
			<line fill="none" x1="9.8136" y1="8.1124" x2="11.9781" y2="8.1124"/>
			<path fill="#003383" d="M42.7198,9.7503c-0.1987,0.4214-0.39,0.2833-0.663,0.1661c-0.1454-0.0613-0.3355-0.1035-0.586-0.1035
				c-0.2947,0.0005-0.5455,0.077-0.7465,0.2226c-0.2028,0.1444-0.3575,0.3569-0.4486,0.635
				c-0.0632,0.1865-0.0982,0.4004-0.0982,0.6448c0,0.2765,0.0414,0.52,0.1139,0.7217c0.0754,0.2044,0.182,0.3661,0.3186,0.4914
				c0.0927,0.0837,0.1953,0.1499,0.3134,0.1992c0.1597,0.0654,0.3377,0.099,0.5473,0.099c0.2738,0,0.4832-0.0613,0.6421-0.1384
				c0.2645-0.1369,0.445-0.2925,0.6737,0.1142c-0.0968,0.0922-0.2595,0.2179-0.4337,0.3007
				c-0.0257,0.0125-0.0527,0.0235-0.0809,0.0354c-0.2152,0.0895-0.4878,0.1551-0.8191,0.1551h-0.0002
				c-0.4214,0-0.7817-0.108-1.0716-0.3071c-0.2891-0.2024-0.5003-0.4939-0.6228-0.859c-0.0813-0.2426-0.1217-0.5169-0.1217-0.8122
				c-0.0004-0.4515,0.103-0.8435,0.2947-1.1559c0.1903-0.3111,0.4689-0.5424,0.8042-0.6789
				c0.2231-0.0856,0.4739-0.1306,0.7405-0.1306C41.6297,9.3573,42.1761,9.3082,42.7198,9.7503"/>
			<path fill="#003383" d="M56.4675,10.3603c-0.0565-0.1714-0.1322-0.321-0.2283-0.4515c-0.1426-0.1898-0.3255-0.3312-0.5391-0.4284
				c-0.215-0.0873-0.4615-0.1306-0.7222-0.1306c-0.2492,0-0.481,0.0463-0.6924,0.1391c-0.3124,0.1392-0.5751,0.3758-0.7566,0.694
				c-0.1794,0.3152-0.2788,0.7062-0.2788,1.1555c0,0.2904,0.0382,0.5602,0.1175,0.8015c0.1183,0.3594,0.3247,0.6494,0.6145,0.8488
				c0.286,0.1983,0.6554,0.3048,1.0858,0.3048h0.0008c0.345,0,0.6252-0.0557,0.8539-0.1368
				c0.3661-0.1379,0.5534-0.3065,0.6441-0.4049c-0.2494-0.3637-0.3908-0.2181-0.6797-0.0842
				c-0.169,0.0836-0.4924,0.1539-0.7835,0.1539c-0.2235,0-0.4164-0.0331-0.5773-0.0949c-0.1221-0.0456-0.2275-0.1086-0.319-0.1892
				c-0.1348-0.1199-0.241-0.2754-0.31-0.4758c-0.064-0.1775-0.0992-0.3889-0.1058-0.6349h2.7864v-0.0878c0-0.0004,0-0.0107,0-0.0228
				c0-0.0326,0.0042-0.0933,0.0042-0.1522C56.5822,10.8569,56.5446,10.5907,56.4675,10.3603 M53.8064,10.9765
				c0.0241-0.1771,0.0648-0.332,0.1221-0.4704c0.0996-0.2394,0.2426-0.4149,0.418-0.5312c0.1788-0.1191,0.3874-0.1763,0.6314-0.1763
				c0.1611,0,0.31,0.0219,0.4359,0.0662c0.0947,0.0359,0.1812,0.0829,0.2559,0.1484c0.1124,0.0947,0.2022,0.221,0.2681,0.3963
				c0.0551,0.1537,0.0947,0.338,0.107,0.5671C56.0449,10.9765,53.8064,10.9765,53.8064,10.9765z"/>
			<path fill="#003383" d="M58.8603,9.3654c-0.283-0.0008-0.5323,0.0867-0.7457,0.2199c-0.1392,0.0854-0.2655,0.1892-0.3778,0.2998
				c0-0.0928-0.0016-0.1648-0.0111-0.2239c-0.0016-0.0465-0.0093-0.0836-0.0225-0.1213c-0.008-0.0242-0.0201-0.0496-0.0394-0.0733
				c-0.0143-0.0145-0.0296-0.0282-0.0467-0.0388c-0.0257-0.0165-0.0531-0.027-0.0827-0.0301
				c-0.0245-0.003-0.0499-0.0035-0.0766-0.0058H57.203v3.8721h0.5339v-2.7787c0.1877-0.2217,0.3615-0.3585,0.481-0.4338
				c0.0036-0.0023,0.0076-0.0046,0.0111-0.0071c0.2168-0.1368,0.389-0.1744,0.5278-0.1879
				c0.2468-0.0237,0.4142-0.0565,0.4381-0.4426C59.0955,9.3847,58.9814,9.3665,58.8603,9.3654"/>
		</g>
		<g>
			<rect x="0.8052" y="1.8634" fill="#003383" width="3.379" height="3.3788"/>
			<rect x="0.8052" y="5.2423" fill="#4271B1" width="3.379" height="3.3788"/>
			<rect x="0.8052" y="8.6211" fill="#5A9AD0" width="3.379" height="3.3788"/>
			<rect x="0.8052" y="11.9999" fill="#7FB2E2" width="3.379" height="3.3789"/>
			<rect x="0.8052" y="15.3789" fill="#A8C9E9" width="3.379" height="3.3786"/>
			<rect x="0.8052" y="18.7575" fill="#C2D7E9" width="3.379" height="3.379"/>
		</g>
	</g>
</g>
</svg>
