<?xml version="1.0" encoding="utf-8"?>
<svg width='300px' height='300px' xmlns="http://www.w3.org/2000/svg" viewBox="0 0 100 100" preserveAspectRatio="xMidYMid" class="uil-ring-alt">
<rect x="0" y="0" width="100" height="100" fill="transparent" class="bk"></rect>
    <circle cx="50" cy="50" r="40" stroke="#e6e6e6" fill="transparent" stroke-width="10" stroke-linecap="round"></circle>
    <circle cx="50" cy="50" r="40" stroke="#0065c5" fill="transparent" stroke-width="6" stroke-linecap="round">
        <animate attributeName="stroke-dashoffset" dur="2s" repeatCount="indefinite" from="0" to="502"></animate><animate attributeName="stroke-dasharray" dur="2s" repeatCount="indefinite" values="188.25 62.75;1 250;188.25 62.75"></animate></circle></svg>